{
  "status": true,
  "data": {
    "id": 262,
    "name": "Hiace_Jibowu [in Lagos] __Jabi [in Abuja] ->EKE",
    "operator_id": 19,
    "trip_code": "29628OZ",
    "source_park_id": 1,
    "dest_park_id": 74,
    "departure_time": "18:00:00",
    "duration": "",
    "fare": 5500,
    "new_fare": 0,
    "bus_type_id": 1,
    "no_of_seats": null,
    "trip_position": "First Bus",
    "parent_trip_id": null,
    "round_trip_fare": null,
    "ac": 0,
    "security": 0,
    "tv": 0,
    "insurance": 0,
    "passport": 0,
    "active": 1,
    "is_intl_trip": 0,
    "virgin_passport_fare": 0,
    "no_passport_fare": 0,
    "round_trip_virgin_passport_fare": 0,
    "round_trip_no_passport_fare": 0,
    "operator_trip_id": 0,
    "virgin_passport": 0,
    "regular_passport": 0,
    "no_passport": 0,
    "international": 0,
    "deleted_at": null,
    "fare_expiry_date": null,
    "created_at": "2017-01-21 04:31:04",
    "updated_at": "2017-01-21 04:56:46",
    "parent_trip_name": null,
    "parent_trip_code": null,
    "operator": {
      "id": 19,
      "name": "E.EKESON BROS NIG LTD",
      "access_code": "",
      "code": "EKE",
      "address": "31, Road, Jibowu, Ikorodu,\u00a0Lagos",
      "contact_person": "Unknown",
      "phone": "01-8611200, 08035680056",
      "email": "",
      "details": "",
      "website": "http:\/\/www.Unknown.com",
      "commission": 5,
      "booking_rules": null,
      "local_children_discount": 0,
      "intl_children_discount": 0,
      "local_terms": "<table width=\"100%\">\r\n<tbody>\r\n<tr>\r\n<td style=\"width: 51px;\">S\/N<\/td>\r\n<td style=\"width: 247px;\">Conditions<\/td>\r\n<\/tr>\r\n<tr>\r\n<td style=\"width: 51px;\">1<\/td>\r\n<td style=\"width: 247px;\">All buses have AC, DVD,Head Rest, Seat belt and nourishing meal<\/td>\r\n<\/tr>\r\n<tr>\r\n<td style=\"width: 51px;\">2<\/td>\r\n<td style=\"width: 247px;\">Seat capacity is 15 Toyota Haice and 26 Mini Lux, Luxury 59<\/td>\r\n<\/tr>\r\n<tr>\r\n<td style=\"width: 51px;\">3<\/td>\r\n<td style=\"width: 247px;\">Departure time is 6:20am from Jibowu Park and night 5:30pm<\/td>\r\n<\/tr>\r\n<tr>\r\n<td style=\"width: 51px;\">4<\/td>\r\n<td style=\"width: 247px;\">Boarding time is 6:00am<\/td>\r\n<\/tr>\r\n<tr>\r\n<td style=\"width: 51px;\">5<\/td>\r\n<td style=\"width: 247px;\">Passengers should be at the terminal at most thirty minute before boarding time<\/td>\r\n<\/tr>\r\n<tr>\r\n<td style=\"width: 51px;\">6<\/td>\r\n<td style=\"width: 247px;\">Reports on ticket sold sent 24 hours before departure date<\/td>\r\n<\/tr>\r\n<tr>\r\n<td style=\"width: 51px;\">7<\/td>\r\n<td style=\"width: 247px;\">Children between 10 year below pay 50% off ticket price and 11 years upward 100% which is the actual fare<\/td>\r\n<\/tr>\r\n<tr>\r\n<td style=\"width: 51px;\">8<\/td>\r\n<td style=\"width: 247px;\">Ticket booked and didn't travel on the surposed date is only valid for on month<\/td>\r\n<\/tr>\r\n<\/tbody>\r\n<\/table>",
      "intl_terms": "",
      "img": "ekeson.png",
      "portal_link": "",
      "should_sync": 0,
      "active": 1,
      "deleted_at": null,
      "created_at": "2013-07-29 13:43:42",
      "updated_at": "2016-12-19 17:11:59",
      "rule": "",
      "excel_template": "ekesons.xlsx"
    },
    "bus_type": {
      "id": 1,
      "name": "Hiace",
      "show": 1,
      "no_of_seats": 15,
      "no_of_columns": 4,
      "no_of_rows": 4,
      "seat_width": 125,
      "seat_height": 45,
      "holder_width": 573,
      "holder_height": 317,
      "no_seats": "-1, 0",
      "deleted_at": null,
      "created_at": "2016-03-02 18:10:38",
      "updated_at": "2016-03-02 18:10:38"
    },
    "destpark": {
      "id": 74,
      "state_id": 34,
      "name": "Jabi [in Abuja] ",
      "address": "",
      "active": 1,
      "boardable": 1,
      "deleted_at": null,
      "created_at": "2016-11-28 01:11:58",
      "updated_at": "2016-11-28 01:11:58"
    },
    "sourcepark": {
      "id": 1,
      "name": "Jibowu [in Lagos] ",
      "state_id": 1
    },
    "seats": [
      {
        "id": 198,
        "seat_no": 1,
        "trip_id": 262,
        "booking_id": 257,
        "departure_date": "2017-06-08 00:00:00",
        "created_at": "2017-06-07 10:53:32",
        "updated_at": "2017-06-07 10:53:32",
        "sub_trip_id": 0
      }
    ]
  },
  "message": ""
}