{
  "status": 200,
  "data": {
    "trip_id": "262",
    "seat_no": "5",
    "departure_date": "2017-06-08",
    "booking_id": "261",
    "updated_at": "2017-06-07 11:40:42",
    "created_at": "2017-06-07 11:40:42",
    "id": 201
  },
  "message": ""
}